{
    "name": "DM",
    "headerTaglineOne": "Hello",
    "headerTaglineTwo": "I'm Dennis Mwongera - ",
    "headerTaglineThree": "Designer and Developer",
    "headerTaglineFour": "",
    "showCursor": true,
    "showBlog": true,
    "darkMode": true,
    "showResume": true,
    "work": true,
    "socials": [
        {
            "id": "1",
            "title": "Github",
            "link": "https://github.com/DennisMwongera"
        },
        {
            "id": "2",
            "title": "LinkedIn",
            "link": "https://linkedin.com/in/dennis-mwongera-4ba511186/"
        },
        {
            "id": "3",
            "title": "Twitter",
            "link": "https://twitter.com/DennisMwongera7"
        },
        {
            "id": "4",
            "title": "Blog",
            "link": ""
        },
        {
            "id": "5",
            "title": "Email",
            "link": "mailto:dennismwongera0@gmail.com"
        }
    ],
    "projects": [
        {
            "id": "1",
            "title": "TradePoint",
            "description": "Mobile and Web Design",
            "imageSrc": "https://tradepoint.co.ke/images/feature/app-intro.png",
            "url": "https://tradepoint.co.ke/"
        },
        {
            "id": "2",
            "title": "Sabasi Web Application",
            "description": "Survey Builder",
            "imageSrc": "",
            "url": "https://sabasi.mobi"
        },
        {
            "id": "3",
            "title": "Data Portal",
            "description": "Report Web App",
            "imageSrc": "",
            "url": "http://data.nandicounty.go.ke"
        },
        {
            "id": "4",
            "title": "Fellowship Website",
            "description": "Website",
            "imageSrc": "",
            "url": "https://fellowships.openinstitute.africa/"
        }
    ],
    "services": [
        {
            "id": "1",
            "title": "Software Engineering",
            "description": "We help with the creation and development of online advertising ideas, with particular focus on their visual appearance."
        },
        {
            "id": "2",
            "title": "Graphic Design",
            "description": "We design key brand elements such as the logo, color scheme, typography, and other design components that makes your brand stand out from competitors."
        },
        {
            "id": "3",
            "title": "Web Design",
            "description": "We build and optimize your online presence.  Website is the digital entry point into your business and a powerful revenue channel."
        },
        {
            "id": "4",
            "title": "UX/UI",
            "description": "We combine creative design and technical skills to build striking 3D visualisations that bring your project to life."
        }
    ],
    "aboutpara": "A Developer and Associate with a strong record of delivering high-quality software solutions. Proficient in various programming languages and adept at optimizing performance throughout the development lifecycle. Demonstrated expertise in system building, system training and management. Passionate about continuous learning and staying relevant of industry trends. Committed to producing exceptional deliverables that elevate user experiences and contribute to business success.",
    "resume": {
        "tagline": "I'm a Frontend Engineer, product designer.",
        "description": "I have delivered world-class user experiences to various clients. Well-versed with React, Javascript, and most of the Web frameworks.",
        "experiences": [
            {
                "id": "1",
                "dates": "March 2021 - September 2023",
                "type": "Full Time",
                "position": "Frontend Engineer at Open Institute",
                "bullets": "Participated in new technologies and front-end architecture discussions to recommend system changes and enhancements, Build System Frontend using JavaScript Frameworks. (Vue, React), Build Backend Structures with Laravel framework, Technical Documentation of our processes and methodologies, Data analysis and management, Technical Support of our company system, Integrate modern technologies and tools to improve software performance."
            },
            {
                "id": "d495c23b-4f65-479a-9b8a-cfbc1c089725",
                "dates": "March 2020 - Dec 2020",
                "type": "Full Time",
                "position": "Frontend Engineer at Crafted Systems",
                "bullets": "Worked on the frontend of a Fintech Website, Worked on the frontend of a Call System, Creatively map User Experience in line with the applied system orproduct, Create Information Architecture look into System Architecture, Actively Work on the API requirements for the team, System and Product development setup and production setup, Participate in migrating interfaces in VueJs Framework from LegacyCode, Develop designs for Crafted Systems’ applications, Document Technical Improvements on the Existing Applications, Work with backend developers to come up with flowcharts"
            }
        ],
        "education": {
            "universityName": "Technical University of Kenya",
            "universityDate": "2014-2018",
            "universityParagh": "Studied a major in Bachelor of Technology (Design) - Specialized in Interactive Media"
        },
        "languages": [
            "Javascript",
            "HTML5",
            "CSS",
            "Javascript"
        ],
        "frameworks": [
            "React",
            "Typescript",
            "Vue",
            "NodeJs"
        ],
        "others": [
            "Figma",
            "AdobeXD",
            "AWS"
        ]
    }
}